212 340 312 198 301 206 214 145 517 203 255 279 142 180 195 221 205 139 307 214 406 443 205 277 291 201 90 271 218 165 110 152 290 361 332 579 164 206 156 286 161 198 171 176 284 147 304 266 112 204 251 169 281 215 181 330 299 172 161 126 660 394 227 258 507 211 511 200 460 254 213 264 290 388 223 334 388 359 186 215 236 123 192 202 443 147 233 344 202 132 332 144 179 166 307 313 244 211 337 78 
212 340 312 198 301 206 214 145 517 203 255 279 142 180 195 221 205 139 307 214 406 443 205 277 291 201 90 271 218 165 110 152 290 361 332 579 164 206 156 286 161 198 171 176 284 147 304 266 112 204 251 169 281 215 181 330 299 172 161 126 660 394 227 258 507 211 511 200 460 254 213 264 290 388 223 334 388 359 186 215 236 123 192 202 443 147 233 344 202 132 332 144 179 166 307 313 244 211 337 78 
212 340 312 198 301 206 214 145 517 203 255 279 142 180 195 221 205 139 307 214 406 443 205 277 291 201 90 271 218 165 110 152 290 361 332 579 164 206 156 286 161 198 171 176 284 147 304 266 112 204 251 169 281 215 181 330 299 172 161 126 660 394 227 258 507 211 511 200 460 254 213 264 290 388 223 334 388 359 186 215 236 123 192 202 443 147 233 344 202 132 332 144 179 166 307 313 244 211 337 78 
Fibonacci heaps run time: 72.684s
Binary heaps run time: 67.032s
Leftist heaps run time: 66.79s
